{
    "_id": "8ewUvJlvn6LVjoXJ",
    "data": {
        "attributes": {
            "ac": {
                "value": 10
            },
            "hardness": 0,
            "hasHealth": false,
            "hp": {
                "details": "",
                "max": 0,
                "temp": 0,
                "tempmax": 0,
                "value": 0
            },
            "stealth": {
                "details": "(legendary)",
                "value": 34
            }
        },
        "creatureType": "",
        "details": {
            "description": "Powerful warding magic tied to an object or location tries to regress the ages of a creature and its allies.",
            "disable": "Thievery DC 46 (legendary) to take apart the spell one tiny piece at a time, with eyes closed, while recalling every vivid life memory in order, starting from the earliest memory",
            "isComplex": false,
            "level": 21,
            "reset": "",
            "routine": ""
        },
        "flavourText": "",
        "nethysUrl": "",
        "recallKnowledgeText": "",
        "saves": {
            "fortitude": {
                "rank": 0,
                "saveDetail": "",
                "value": 0
            },
            "reflex": {
                "rank": 0,
                "saveDetail": "",
                "value": 0
            },
            "will": {
                "rank": 0,
                "saveDetail": "",
                "value": 0
            }
        },
        "schema": {
            "version": {
                "value": ""
            }
        },
        "sidebarText": "",
        "source": {
            "value": ""
        },
        "statusEffects": [],
        "traits": {
            "ci": [],
            "di": {
                "custom": "",
                "selected": {},
                "value": []
            },
            "dr": [],
            "dv": [],
            "traits": {
                "custom": "",
                "value": [
                    "magical"
                ]
            }
        }
    },
    "flags": {},
    "img": "icons/svg/mystery-man.svg",
    "items": [
        {
            "_id": "ddB24NYRgK5YbbcR",
            "data": {
                "actionCategory": {
                    "value": ""
                },
                "actionType": {
                    "value": "reaction"
                },
                "actions": {
                    "value": ""
                },
                "description": {
                    "chat": "",
                    "unidentified": "",
                    "value": "<b>Trigger</b> A creature tries to steal the object or intrude upon the location. If someone uses a proxy or dupe for the theft or intrusion, the You can make a summoning rune of nearly any level. It summons a creature of a level equal to the trap's level. Use Table 10-5: DCs by Level on page 503 to determine the Thievery DC and spell DC, using the trap's level and applying a hard adjustment (+2). The Stealth modifier for the trap is equal to this number - 10. Stronger summoning runes usually require expert proficiency or better in Perception to find, and they might require a higher proficiency rank in Thievery to disable.trap unerringly targets the true perpetrator or perpetrators at any distance-even across planes.<br /><b>Effect</b> The triggering creature and up to five coconspirators instantly revert to infants, losing all memories, class abilities, and other skills acquired during their lives (DC 44 Fortitude negates). Reversing this effect is nearly impossible, requiring powerful magic such as <i>wish</i>."
                },
                "rarity": {
                    "value": "common"
                },
                "requirements": {
                    "value": ""
                },
                "skill_requirements": {
                    "rank": "",
                    "skill": ""
                },
                "source": {
                    "value": ""
                },
                "traits": {
                    "custom": "",
                    "value": [
                        "divine",
                        "transmutation"
                    ]
                },
                "trigger": {
                    "value": ""
                },
                "usage": {
                    "value": "held-in-one-hand"
                },
                "weapon": {
                    "value": ""
                }
            },
            "flags": {},
            "img": "systems/pf2e/icons/actions/Reaction.png",
            "name": "In the Beginning",
            "type": "action"
        }
    ],
    "name": "Second Chance",
    "permission": {
        "default": 0
    },
    "token": {
        "actorData": {},
        "actorId": "8ewUvJlvn6LVjoXJ",
        "actorLink": false,
        "bar1": {},
        "bar2": {},
        "brightLight": 0,
        "brightSight": 0,
        "dimLight": 0,
        "dimSight": 0,
        "displayBars": 0,
        "displayName": 0,
        "disposition": -1,
        "flags": {},
        "height": 1,
        "img": "icons/svg/mystery-man.svg",
        "lightAlpha": 1,
        "lightAngle": 360,
        "lockRotation": false,
        "name": "Second Chance",
        "randomImg": false,
        "rotation": 0,
        "scale": 1,
        "sightAngle": 360,
        "tint": null,
        "vision": false,
        "width": 1
    },
    "type": "hazard"
}
