{
    "_id": "yphbsrQe9KmQefU9",
    "content": "<p><span id=\"ctl00_MainContent_DetailedOutput\">As a diplomat or messenger, you traveled to lands far and wide. Communicating with new people and forming alliances were your stock and trade.<br /></span></p>\n<p><span id=\"ctl00_MainContent_DetailedOutput\">Choose two ability boosts. One must be to <strong>Intelligence</strong> or <strong>Charisma</strong>, and one is a free ability boost.<br /></span></p>\n<p><span id=\"ctl00_MainContent_DetailedOutput\">You're trained in the Society skill and a Lore skill related to one city you've visited often. You gain the @Compendium[pf2e.feats-srd.Multilingual]{Multilingual} skill feat.</span></p>",
    "flags": {},
    "name": "Emissary",
    "permission": {
        "default": 0
    }
}
