{
    "_id": "ngzWTz11vCUI3h7i",
    "content": "<p><span id=\"ctl00_MainContent_DetailedOutput\">You are the youngest child in a noble house (in Cheliax, Isger, or Andoran) and stand to inherit nothing from your family. Although you have a minor title, it affords you no lands or wealth, but it has garnered you a small amount of respect and deference in your travels. When play begins, you are riding in a caravan bound for Almas, where a cousin has promised to allow you to stay with them for a month.<br></span></p>\n<p><span id=\"ctl00_MainContent_DetailedOutput\">Choose two ability boosts. One must be to <strong>Dexterity</strong> or <strong>Intelligence</strong>, and one is a free ability boost.<br>You're trained in the Diplomacy skill and the Heraldry Lore skill. You gain the @Compendium[pf2e.feats-srd.Hobnobber]{Hobnobber} skill feat.</span></p>",
    "flags": {},
    "name": "Lesser Scion",
    "permission": {
        "default": 0
    }
}
