{
    "_id": "8uc1ABJWOJ3gVCFD",
    "content": "<p>You have learned the secrets of taming the mighty mammoths and other megafauna of the far north. Perhaps these talents are a part of your people's traditional customs, or perhaps you sought out these massive animals of your own accord.</p>\n<p>Choose two ability boosts. One must be to <strong>Constitution</strong>  or <strong>Wisdom</strong>, and one is a free ability boost.</p>\n<p>You're trained in the Nature skill and the Animal Lore skill. You gain the @Compendium[pf2e.feats-srd.Train Animal]{Train Animal} skill feat.</p>",
    "flags": {},
    "img": "",
    "name": "Mammoth Speaker",
    "permission": {
        "default": 0
    }
}
