{
    "_id": "ekEBKpFNZ0QVwywW",
    "content": "<p>You were forced into service as a sailor against your will. Perhaps you were punished for a crime, were drafted into military service, are repaying a debt, or simply were abducted. Though you were initially trained as a simple deckhand, you may have subsequently studied a trade under one of the vessel's specialists.</p>\n<p>Choose two ability boosts. One must be to <strong>Strength</strong> or <strong>Wisdom</strong>, and one is a free ability boost.</p>\n<p>You're trained in the Society skill and the Sailing Lore skill. You gain the @Compendium[pf2e.feats-srd.Experienced Professional]{Experienced Professional} skill feat.</p>",
    "flags": {},
    "name": "Press-Ganged",
    "permission": {
        "default": 0
    }
}
