{
    "_id": "1zyrJ5dQPKedoSfP",
    "content": "<p>You serve a living god who rules upon the face of Golarion, and this gives your actions a divine mandate not to be trifled with.</p>\n<p>Choose two ability boosts. One must be to <strong>Strength</strong> or <strong>Charisma</strong>, and one is a free ability boost.</p>\n<p>You're trained in the Intimidation skill and the Razmir Lore skill. You gain the @Compendium[pf2e.feats-srd.Group Coercion]{Group Coercion} skill feat.</p>",
    "flags": {},
    "name": "Razmiran Faithful",
    "permission": {
        "default": 0
    }
}
