{
    "_id": "QoE4PIIVn60tRxF4",
    "content": "<p><span id=\"ctl00_MainContent_DetailedOutput\">You eked out a living by picking pockets on the streets of a major city, never knowing where you'd find your next meal. While some folk adventure for the glory, you do so to survive.<br /></span></p>\n<p><span id=\"ctl00_MainContent_DetailedOutput\">Choose two ability boosts. One must be to <strong>Dexterity</strong> or <strong>Constitution</strong>, and one is a free ability boost.<br /></span></p>\n<p><span id=\"ctl00_MainContent_DetailedOutput\">You're trained in the Thievery skill and a Lore skill for the city you lived in as a street urchin (such as Absalom Lore or Magnimar Lore). You gain the @Compendium[pf2e.feats-srd.Pickpocket]{Pickpocket} skill feat.</span></p>",
    "flags": {},
    "name": "Street Urchin",
    "permission": {
        "default": 0
    }
}
