{
    "_id": "NDhkBcdxy5J8M6Wx",
    "content": "<p>Whether willing or unwilling, you have been involved in the many cutthroat political intrigues within Taldor. You might have been born into it as a member of the aristocracy, or you might have taken an active role in the recent events of the War for the Crown.</p>\n<p>Choose two ability boosts. One must be to <strong>Charisma</strong>  or <strong>Constitution</strong>, and one is a free ability boost.</p>\n<p>You're trained in the Diplomacy skill and the Politics Lore skill. You gain the @Compendium[pf2e.feats-srd.Hobnobber]{Hobnobber} skill feat.</p>",
    "flags": {},
    "name": "Taldan Schemer",
    "permission": {
        "default": 0
    }
}
