{
    "_id": "NiuVJNmAe7TdI3mv",
    "content": "<p>Despite the setbacks Cheliax has suffered recently, your loyalties lie with the devil-backed House Thrune. You consider the current queen to be the rightful ruler of your homeland, and you are willing to act against her enemies.</p>\n<p>Choose two ability boosts. One must be to <strong>Intelligence</strong> or <strong>Charisma</strong>, and one is a free ability boost.</p>\n<p>You're trained in the Religion skill and the Hell Lore skill You gain the @Compendium[pf2e.feats-srd.Student of the Canon]{Student of the Canon} skill feat.</p>",
    "flags": {},
    "name": "Thrune Loyalist",
    "permission": {
        "default": 0
    }
}
