{
    "_id": "8HxM35X8DDt2gw9d",
    "data": {
        "armor": {
            "label": "AC Bonus",
            "type": "Number",
            "value": 1
        },
        "armorType": {
            "label": "Armor Category",
            "type": "String",
            "value": "light"
        },
        "brokenThreshold": {
            "value": null
        },
        "bulkCapacity": {
            "value": ""
        },
        "check": {
            "label": "Check Penalty",
            "type": "String",
            "value": ""
        },
        "collapsed": {
            "value": false
        },
        "containerId": {
            "value": ""
        },
        "description": {
            "chat": "",
            "label": "Description",
            "type": "String",
            "unidentified": "",
            "value": "<p>Shining, slippery eelskin covers the plates of this +1 resilient greater slick leather armor . The armor gives you the ability to breathe water and grants you a +2 item bonus to Athletics checks to Swim and Stealth checks you attempt in the water.</p>\n<hr />\n<p><strong>Activate</strong><span style=\"font-family: 'Pathfinder2eActions'; font-size: 1.8em; display: inline;\">D</span>Command, Interact</p>\n<p><strong>Frequency</strong>once per hour</p>\n<p><strong>Effect</strong>You cast a 2nd-level @Compendium[pf2e.spells-srd.Shocking Grasp]{Shocking Grasp} with a DC of 29.</p>\n<hr />\n<p><strong>Craft Requirements</strong>Supply one casting of<em>shocking grasp</em>.</p>\n<p>Automatically applied effects:</p>\n<ul>\n<li>+2 item bonus to Athletics checks to Swim</li>\n<li>+2 item bonus to Stealth checks you attempt in the water</li>\n</ul>"
        },
        "dex": {
            "label": "Dex Modifier Cap",
            "type": "String",
            "value": "4"
        },
        "equipped": {
            "label": "Equipped",
            "type": "Boolean",
            "value": false
        },
        "equippedBulk": {
            "value": "1"
        },
        "group": {
            "label": "Group",
            "type": "String",
            "value": "leather"
        },
        "hardness": {
            "value": null
        },
        "hp": {
            "value": null
        },
        "identified": {
            "value": true
        },
        "invested": {
            "value": false
        },
        "level": {
            "label": "Item Level",
            "type": "Number",
            "value": 10
        },
        "maxHp": {
            "value": null
        },
        "negateBulk": {
            "value": "0"
        },
        "potency": {
            "label": "Armor Potency",
            "type": "String"
        },
        "potencyRune": {
            "value": "1"
        },
        "preciousMaterial": {
            "value": ""
        },
        "preciousMaterialGrade": {
            "value": ""
        },
        "price": {
            "label": "Price",
            "type": "String",
            "value": "950 gp"
        },
        "propertyRune1": {
            "value": "greaterSlick"
        },
        "propertyRune2": {
            "value": ""
        },
        "propertyRune3": {
            "value": ""
        },
        "propertyRune4": {
            "value": ""
        },
        "quantity": {
            "label": "Quantity",
            "type": "Number",
            "value": 1
        },
        "rarity": {
            "value": "common"
        },
        "resiliencyRune": {
            "value": "resilient"
        },
        "resilient": {
            "label": "Resilient",
            "type": "String"
        },
        "rules": [
            {
                "key": "PF2E.RuleElement.FlatModifier",
                "label": "Electric Eelskin (Swim)",
                "predicate": {
                    "all": [
                        "swim"
                    ]
                },
                "selector": "athletics",
                "type": "item",
                "value": 2
            },
            {
                "key": "PF2E.RuleElement.FlatModifier",
                "label": "Electric Eelskin (Water)",
                "predicate": {
                    "all": [
                        "water"
                    ]
                },
                "selector": "stealth",
                "type": "item",
                "value": 2
            }
        ],
        "source": {
            "label": "Source",
            "type": "String",
            "value": ""
        },
        "speed": {
            "label": "Speed Penalty",
            "type": "String",
            "value": ""
        },
        "stackGroup": {
            "value": ""
        },
        "strength": {
            "label": "Required Strength",
            "type": "String",
            "value": ""
        },
        "traits": {
            "custom": "",
            "label": "Traits",
            "rarity": {
                "value": "common"
            },
            "type": "String",
            "value": [
                "invested",
                "magical",
                "transmutation"
            ]
        },
        "usage": {
            "value": "wornarmor"
        },
        "weight": {
            "label": "Bulk",
            "type": "Number",
            "value": "2"
        }
    },
    "effects": [],
    "flags": {},
    "img": "systems/pf2e/icons/equipment/armor/specific-magic-armor/electric-eelskin.jpg",
    "name": "Electric Eelskin",
    "permission": {
        "default": 0
    },
    "type": "armor"
}
