{
    "_id": "1pglC9PQx6yOgcKL",
    "data": {
        "brokenThreshold": {
            "value": 0
        },
        "bulkCapacity": {
            "value": "10"
        },
        "collapsed": {
            "value": false
        },
        "containerId": {
            "value": ""
        },
        "description": {
            "chat": "",
            "unidentified": "",
            "value": "<p>This loose robe has wide, voluminous sleeves that each contain an extradimensional space. These spaces each function as a <em>bag of holding</em> that can hold up to 5 Bulk of items (for a total of 10 Bulk), though no individual item can be of more than 1 Bulk; the sleeves grow slightly heavy as you reach maximum capacity. You can add or remove an item from a sleeve with a single hand free as an Interact action.</p>\n<p>If a sleeve is completely empty, you can place your own familiar into that extradimensional space. It can survive comfortably in your sleeve for up to 1 hour, after which it begins to <em>suffocate</em>. While in your sleeve, it can't be affected or targeted by any effects, but you don't benefit from any master abilities. A familiar can exit the sleeve of its own volition with a single action that has the <em>manipulate </em>and <em>move</em> traits. You can't place any other creature into your sleeves, nor can you place your familiar in a sleeve if it's larger than Tiny. If your familiar is in your sleeve, you can't place any items in the sleeve.</p>"
        },
        "equipped": {
            "value": false
        },
        "equippedBulk": {
            "value": ""
        },
        "hardness": {
            "value": 0
        },
        "hp": {
            "value": 0
        },
        "identified": {
            "value": true
        },
        "invested": {
            "value": false
        },
        "level": {
            "value": "4"
        },
        "maxHp": {
            "value": 0
        },
        "negateBulk": {
            "value": "10"
        },
        "originalName": "",
        "preciousMaterial": {
            "value": ""
        },
        "preciousMaterialGrade": {
            "value": ""
        },
        "price": {
            "value": "100 gp"
        },
        "quantity": {
            "value": "1"
        },
        "rarity": {
            "value": "common"
        },
        "rules": [],
        "source": {
            "value": ""
        },
        "stackGroup": {
            "value": ""
        },
        "traits": {
            "custom": "",
            "rarity": {
                "value": "common"
            },
            "usage": {
                "value": "worngarment"
            },
            "value": [
                "conjuration",
                "extradimensional",
                "invested",
                "magical"
            ]
        },
        "usage": {
            "value": "held-in-one-hand"
        },
        "weight": {
            "value": "L"
        }
    },
    "effects": [],
    "flags": {},
    "img": "systems/pf2e/icons/equipment/worn-items/other-worn-items/sleeves-of-storage.jpg",
    "name": "Sleeves of Storage",
    "permission": {
        "default": 0
    },
    "type": "equipment"
}
