{
    "_id": "VBCk7JXGsuG0cug1",
    "data": {
        "brokenThreshold": {
            "value": 0
        },
        "bulkCapacity": {
            "value": ""
        },
        "collapsed": {
            "value": false
        },
        "containerId": {
            "value": ""
        },
        "description": {
            "chat": "",
            "unidentified": "",
            "value": "<p>This brass censer dangles on a length of chain. Most <em>thuribles of revelation</em> are adorned with swirling Celestial text, though some are iron and feature Infernal or Abyssal text.</p>\n<p><strong>Activate</strong> <span style=\"font-family: 'Pathfinder2eActions'; font-size: 1.8em; display: inline;\">D</span> Interact</p>\n<p><strong>Cost</strong> incense worth at least 5 gp</p>\n<p><strong>Effect</strong> You light the incense inside the censer, and it burns for 1 hour. During that time, as long you are holding the thurible, you gain a +3 item bonus to Religion checks, and any critical failure you roll when you Decipher Writing of a religious nature is a failure instead.</p>\n<p>Once per day, when you activate the thurible, you can increase its revelations. During that activation, you can hold the thurible up to your eyes with an Interact action to gain the effects of @Compendium[pf2e.spells-srd.See Invisibility]{See Invisibility} and @Compendium[pf2e.spells-srd.True Seeing]{True Seeing} for 1 round by peering through the smoke.</p>\n<p>@Compendium[pf2e.spell-effects.Effect: Thurible of Revelation (Greater)]{Effect: Thurible of Revelation (Greater)}</p>"
        },
        "equipped": {
            "value": false
        },
        "equippedBulk": {
            "value": ""
        },
        "hardness": {
            "value": 0
        },
        "hp": {
            "value": 0
        },
        "identified": {
            "value": true
        },
        "invested": {
            "value": false
        },
        "level": {
            "value": "18"
        },
        "maxHp": {
            "value": 0
        },
        "negateBulk": {
            "value": ""
        },
        "originalName": "",
        "preciousMaterial": {
            "value": ""
        },
        "preciousMaterialGrade": {
            "value": ""
        },
        "price": {
            "value": "19,000 gp"
        },
        "quantity": {
            "value": "1"
        },
        "rarity": {
            "value": "common"
        },
        "rules": [],
        "source": {
            "value": ""
        },
        "stackGroup": {
            "value": ""
        },
        "traits": {
            "custom": "",
            "rarity": {
                "value": "common"
            },
            "usage": {
                "value": "held-in-one-hand"
            },
            "value": [
                "divination",
                "divine"
            ]
        },
        "usage": {
            "value": "held-in-one-hand"
        },
        "weight": {
            "value": "1"
        }
    },
    "effects": [],
    "flags": {},
    "img": "systems/pf2e/icons/equipment/held-items/thurible-of-revelation.jpg",
    "name": "Thurible of Revelation (Greater)",
    "permission": {
        "default": 0
    },
    "type": "equipment"
}
