{
    "_id": "ut83Grf73Z8ZTaV1",
    "data": {
        "brokenThreshold": {
            "value": 0
        },
        "bulkCapacity": {
            "value": ""
        },
        "collapsed": {
            "value": false
        },
        "containerId": {
            "value": ""
        },
        "description": {
            "chat": "",
            "unidentified": "",
            "value": "<p>This wand is a slender length of ice-blue glass.</p>\n<p><strong>Activate</strong> Cast a spell;</p>\n<p><strong>Frequency</strong> Once per day, plus overcharge;</p>\n<p><strong>Effect</strong> You cast @Compendium[pf2e.spells-srd.Cone of Cold]{Cone of Cold} at 5th level.</p>\n<p>The ground within the spell's area is swathed in deep snow, becoming difficult terrain for 1 minute.</p>\n<p><strong>Craft Requirements</strong> Supply a casting of cone of cold at 5th-level.</p>"
        },
        "equipped": {
            "value": false
        },
        "equippedBulk": {
            "value": ""
        },
        "hardness": {
            "value": 0
        },
        "hp": {
            "value": 0
        },
        "identified": {
            "value": true
        },
        "invested": {
            "value": false
        },
        "level": {
            "value": "14"
        },
        "maxHp": {
            "value": 0
        },
        "negateBulk": {
            "value": "0"
        },
        "originalName": "",
        "preciousMaterial": {
            "value": ""
        },
        "preciousMaterialGrade": {
            "value": ""
        },
        "price": {
            "value": "4,500 gp"
        },
        "quantity": {
            "value": "1"
        },
        "rarity": {
            "value": "common"
        },
        "rules": [],
        "source": {
            "value": ""
        },
        "stackGroup": {
            "value": ""
        },
        "traits": {
            "custom": "",
            "rarity": {
                "value": "common"
            },
            "usage": {
                "value": "held-in-one-hand"
            },
            "value": [
                "cold",
                "evocation",
                "magical",
                "wand"
            ]
        },
        "usage": {
            "value": "held-in-one-hand"
        },
        "weight": {
            "value": "L"
        }
    },
    "effects": [],
    "flags": {},
    "img": "systems/pf2e/icons/equipment/wands/specialty-wands/wand-of-the-snowfields.jpg",
    "name": "Wand of the Snowfields (5th-Level Spell)",
    "permission": {
        "default": 0
    },
    "type": "equipment"
}
