{
    "_id": "Vhuuy0vFJV5tYldR",
    "description": "Table of 14th-Level Consumables Items",
    "displayRoll": true,
    "flags": {
        "core": {
            "sourceId": "RollTable.51zEW9MYd3Vy5Rg9"
        }
    },
    "formula": "1d48",
    "img": "icons/svg/d20-grey.svg",
    "name": "14th-Level Consumables Items",
    "permission": {
        "default": 0
    },
    "replacement": true,
    "results": [
        {
            "_id": "mYq4p5qykRLe1Ok4",
            "collection": "pf2e.equipment-srd",
            "drawn": false,
            "flags": {},
            "img": "systems/pf2e/icons/equipment/consumables/ammunition/ghost-ammunition.jpg",
            "range": [
                1,
                6
            ],
            "resultId": "Zjevw0WzUs1IIUAL",
            "text": "Ghost Ammunition",
            "type": 2,
            "weight": 6
        },
        {
            "_id": "QN2b9QvvhEhXYHss",
            "collection": "pf2e.equipment-srd",
            "drawn": false,
            "flags": {},
            "img": "systems/pf2e/icons/equipment/alchemical-items/alchemical-elixirs/antidote.jpg",
            "range": [
                7,
                12
            ],
            "resultId": "ANzB9WzlGQXDn76G",
            "text": "Antidote (Major)",
            "type": 2,
            "weight": 6
        },
        {
            "_id": "k455WZW8SCQLXbsv",
            "collection": "pf2e.equipment-srd",
            "drawn": false,
            "flags": {},
            "img": "systems/pf2e/icons/equipment/alchemical-items/alchemical-elixirs/antiplague.jpg",
            "range": [
                13,
                18
            ],
            "resultId": "kajpTXg3oHIJStQa",
            "text": "Antiplague (Major)",
            "type": 2,
            "weight": 6
        },
        {
            "_id": "aPbhuQl16Dn83HR8",
            "collection": "pf2e.equipment-srd",
            "drawn": false,
            "flags": {},
            "img": "systems/pf2e/icons/equipment/alchemical-items/alchemical-elixirs/bombers-eye-elixir.jpg",
            "range": [
                19,
                24
            ],
            "resultId": "lasqzrPVEHI5MkQd",
            "text": "Bomber's Eye Elixir (Greater)",
            "type": 2,
            "weight": 6
        },
        {
            "_id": "3EqXFbXhBaS3HemC",
            "collection": "pf2e.equipment-srd",
            "drawn": false,
            "flags": {},
            "img": "systems/pf2e/icons/equipment/consumables/potions/potion-of-resistance.jpg",
            "range": [
                25,
                30
            ],
            "resultId": "ywYt2SyZaV95KcZH",
            "text": "Potion of Resistance (Greater)",
            "type": 2,
            "weight": 6
        },
        {
            "_id": "oLZsd9xeniDUB97N",
            "collection": "pf2e.equipment-srd",
            "drawn": false,
            "flags": {},
            "img": "systems/pf2e/icons/equipment/consumables/talismans/dazing-coil.jpg",
            "range": [
                31,
                36
            ],
            "resultId": "ClKb4YQn8TfPIclE",
            "text": "Dazing Coil",
            "type": 2,
            "weight": 6
        },
        {
            "_id": "lLzSpPUauPOj4sfl",
            "collection": "pf2e.equipment-srd",
            "drawn": false,
            "flags": {},
            "img": "systems/pf2e/icons/equipment/consumables/talismans/iron-cudgel.jpg",
            "range": [
                37,
                42
            ],
            "resultId": "XvmYNnQ4vg8GREH7",
            "text": "Iron Cudgel",
            "type": 2,
            "weight": 6
        },
        {
            "_id": "HpyqvpBDM6D2jUC6",
            "collection": "pf2e.equipment-srd",
            "drawn": false,
            "flags": {},
            "img": "systems/pf2e/icons/equipment/consumables/talismans/vipers-fang.jpg",
            "range": [
                43,
                48
            ],
            "resultId": "sjxhPujyv6rJJRWO",
            "text": "Viper's Fang",
            "type": 2,
            "weight": 6
        }
    ]
}
