{
    "_id": "YyQkwd1PksU1Lno4",
    "description": "Table of 17th-Level Consumables Items",
    "displayRoll": true,
    "flags": {
        "core": {
            "sourceId": "RollTable.QQc625iUNG4DYJ4K"
        }
    },
    "formula": "1d102",
    "img": "icons/svg/d20-grey.svg",
    "name": "17th-Level Consumables Items",
    "permission": {
        "default": 0
    },
    "replacement": true,
    "results": [
        {
            "_id": "mYq4p5qykRLe1Ok4",
            "collection": "pf2e.equipment-srd",
            "drawn": false,
            "flags": {},
            "img": "systems/pf2e/icons/equipment/consumables/ammunition/spellstrike-ammunition.jpg",
            "range": [
                1,
                6
            ],
            "resultId": "oqiC4Mc5qKNCl88e",
            "text": "Spellstrike Ammunition (Type VIII)",
            "type": 2,
            "weight": 6
        },
        {
            "_id": "QN2b9QvvhEhXYHss",
            "collection": "pf2e.equipment-srd",
            "drawn": false,
            "flags": {},
            "img": "systems/pf2e/icons/equipment/alchemical-items/alchemical-bombs/acid-flask.jpg",
            "range": [
                7,
                12
            ],
            "resultId": "GttLYMT2welSpwCd",
            "text": "Acid Flask (Major)",
            "type": 2,
            "weight": 6
        },
        {
            "_id": "k455WZW8SCQLXbsv",
            "collection": "pf2e.equipment-srd",
            "drawn": false,
            "flags": {},
            "img": "systems/pf2e/icons/equipment/alchemical-items/alchemical-bombs/alchemists-fire.jpg",
            "range": [
                13,
                18
            ],
            "resultId": "cLZrOihPht5M7eTw",
            "text": "Alchemist's Fire (Major)",
            "type": 2,
            "weight": 6
        },
        {
            "_id": "aPbhuQl16Dn83HR8",
            "collection": "pf2e.equipment-srd",
            "drawn": false,
            "flags": {},
            "img": "systems/pf2e/icons/equipment/alchemical-items/alchemical-bombs/bottled-lightning.jpg",
            "range": [
                19,
                24
            ],
            "resultId": "rpbbfkexLhtadBDV",
            "text": "Bottled Lightning (Major)",
            "type": 2,
            "weight": 6
        },
        {
            "_id": "3EqXFbXhBaS3HemC",
            "collection": "pf2e.equipment-srd",
            "drawn": false,
            "flags": {},
            "img": "systems/pf2e/icons/equipment/alchemical-items/alchemical-bombs/frost-vial.jpg",
            "range": [
                25,
                30
            ],
            "resultId": "4DJQID8GIlxQ7b9C",
            "text": "Frost Vial (Major)",
            "type": 2,
            "weight": 6
        },
        {
            "_id": "zz0eL7k3QNTKNXc3",
            "collection": "pf2e.equipment-srd",
            "drawn": false,
            "flags": {},
            "img": "systems/pf2e/icons/equipment/alchemical-items/alchemical-bombs/tanglefoot-bag.jpg",
            "range": [
                31,
                36
            ],
            "resultId": "BxJNWWvpxacDIsdt",
            "text": "Tanglefoot Bag (Major)",
            "type": 2,
            "weight": 6
        },
        {
            "_id": "lLzSpPUauPOj4sfl",
            "collection": "pf2e.equipment-srd",
            "drawn": false,
            "flags": {},
            "img": "systems/pf2e/icons/equipment/alchemical-items/alchemical-bombs/thunderstone.jpg",
            "range": [
                37,
                42
            ],
            "resultId": "IuGydh0En8LbfnWo",
            "text": "Thunderstone (Major)",
            "type": 2,
            "weight": 6
        },
        {
            "_id": "HpyqvpBDM6D2jUC6",
            "collection": "pf2e.equipment-srd",
            "drawn": false,
            "flags": {},
            "img": "systems/pf2e/icons/equipment/alchemical-items/alchemical-elixirs/bestial-mutagen.jpg",
            "range": [
                43,
                48
            ],
            "resultId": "nS75vsM3x5jxlUqn",
            "text": "Bestial Mutagen (Major)",
            "type": 2,
            "weight": 6
        },
        {
            "_id": "iVRvYJVcwJbGNujk",
            "collection": "pf2e.equipment-srd",
            "drawn": false,
            "flags": {},
            "img": "systems/pf2e/icons/equipment/alchemical-items/alchemical-elixirs/cognitive-mutagen.jpg",
            "range": [
                49,
                54
            ],
            "resultId": "VBK9i74dry8yf8f0",
            "text": "Cognitive Mutagen (Major)",
            "type": 2,
            "weight": 6
        },
        {
            "_id": "dfzcLplUcufLhROU",
            "collection": "pf2e.equipment-srd",
            "drawn": false,
            "flags": {},
            "img": "systems/pf2e/icons/equipment/alchemical-items/alchemical-elixirs/juggernaut-mutagen.jpg",
            "range": [
                55,
                60
            ],
            "resultId": "1kNp6yOS0aZPBPzZ",
            "text": "Juggernaut Mutagen (Major)",
            "type": 2,
            "weight": 6
        },
        {
            "_id": "lOjMYhGKB6F7sxCJ",
            "collection": "pf2e.equipment-srd",
            "drawn": false,
            "flags": {},
            "img": "systems/pf2e/icons/equipment/alchemical-items/alchemical-elixirs/quicksilver-mutagen.jpg",
            "range": [
                61,
                66
            ],
            "resultId": "4GXzTN6iSDGfYEAi",
            "text": "Quicksilver Mutagen (Major)",
            "type": 2,
            "weight": 6
        },
        {
            "_id": "cNiXfxE2P5RtTXho",
            "collection": "pf2e.equipment-srd",
            "drawn": false,
            "flags": {},
            "img": "systems/pf2e/icons/equipment/alchemical-items/alchemical-elixirs/serene-mutagen.jpg",
            "range": [
                67,
                72
            ],
            "resultId": "ccrdVliTNBh2mNZf",
            "text": "Serene Mutagen (Major)",
            "type": 2,
            "weight": 6
        },
        {
            "_id": "DgXAZtsXNLNOBZef",
            "collection": "pf2e.equipment-srd",
            "drawn": false,
            "flags": {},
            "img": "systems/pf2e/icons/equipment/alchemical-items/alchemical-elixirs/silvertongue-mutagen.jpg",
            "range": [
                73,
                78
            ],
            "resultId": "uD5vRYVOXNJ53sEE",
            "text": "Silvertongue Mutagen (Major)",
            "type": 2,
            "weight": 6
        },
        {
            "_id": "AFCYNssCdBzJJVoj",
            "collection": "pf2e.equipment-srd",
            "drawn": false,
            "flags": {},
            "img": "systems/pf2e/icons/equipment/alchemical-items/alchemical-poisons/hemlock.jpg",
            "range": [
                79,
                84
            ],
            "resultId": "MP7updiiSct04vno",
            "text": "Hemlock",
            "type": 2,
            "weight": 6
        },
        {
            "_id": "L0pHQgrfUEM4EvtT",
            "drawn": false,
            "flags": {},
            "img": "icons/svg/d20-black.svg",
            "range": [
                85,
                90
            ],
            "resultId": "",
            "text": "Dragon's Breath Potion, Wyrm",
            "type": 0,
            "weight": 6
        },
        {
            "_id": "EQ4wSNuLtSMzgDxo",
            "collection": "pf2e.equipment-srd",
            "drawn": false,
            "flags": {},
            "img": "systems/pf2e/icons/equipment/consumables/other-consumables/spell-scroll.jpg",
            "range": [
                91,
                96
            ],
            "resultId": "cFHomF3tty8Wi1e5",
            "text": "Scroll of 9th-level Spell",
            "type": 2,
            "weight": 6
        },
        {
            "_id": "ab0fuZuEzGYeHk0f",
            "collection": "pf2e.equipment-srd",
            "drawn": false,
            "flags": {},
            "img": "systems/pf2e/icons/equipment/consumables/talismans/dispelling-sliver.jpg",
            "range": [
                97,
                102
            ],
            "resultId": "mGIJCGFkBQLkzhTg",
            "text": "Dispelling Sliver",
            "type": 2,
            "weight": 6
        }
    ]
}
