{
    "_id": "ffdXSxl4lVFrOvyQ",
    "data": {
        "actionCategory": {
            "value": ""
        },
        "actionType": {
            "value": "passive"
        },
        "actions": {
            "value": null
        },
        "description": {
            "chat": "",
            "unidentified": "",
            "value": "<p><strong>Access</strong> Side with the Washboard Dogs in the gang conflict.<br /><strong>Requirements</strong> You're wielding a melee weapon that deals bludgeoning damage and you're @Compendium[pf2e.conditionitems.Hidden]{Hidden} from or @Compendium[pf2e.conditionitems.Undetected]{Undetected} by an enemy.<br /></p>\n<hr />\n<p>You emerge from hiding and deliver a blow that can knock an enemy sprawling to the ground. You Stride up to half your Speed, but you must end your movement next to a foe you're hidden from or undetected by. You then Strike that enemy with the required weapon; if you hit, the target is knocked @Compendium[pf2e.conditionitems.Prone]{Prone}.</p>"
        },
        "featType": {
            "value": "class"
        },
        "level": {
            "value": "8"
        },
        "prerequisites": {
            "value": [
                "Ruffian Rogue"
            ]
        },
        "rarity": {
            "value": "common"
        },
        "rules": [],
        "source": {
            "value": ""
        },
        "traits": {
            "custom": "",
            "rarity": {
                "value": "uncommon"
            },
            "value": [
                "rogue"
            ]
        }
    },
    "effects": [],
    "flags": {
        "core": {
            "sourceId": "Item.XunwtACFdWqQeHEl"
        }
    },
    "img": "systems/pf2e/icons/features/feats/feats.jpg",
    "name": "Ambushing Knockdown",
    "permission": {
        "default": 0
    },
    "type": "feat"
}
