{
    "_id": "agWNAYqgyV58jlxm",
    "data": {
        "actionCategory": {
            "value": ""
        },
        "actionType": {
            "value": "passive"
        },
        "actions": {
            "value": null
        },
        "description": {
            "chat": "",
            "unidentified": "",
            "value": "<p>You feel confident that you can explain your scrolls so well that even your allies can use them... hopefully. During your daily preparations, you can select a single scroll and instruct a single ally in its use. Until your next daily preparations, the ally can attempt to use the scroll with a single action that has the manipulate trait. The ally rolls the skill corresponding to the spellcasting tradition. The GM determines the DC based on the scroll's level, possibly adjusted for the situation. If the spell has a spell attack bonus or a spell DC, use your level as the proficiency bonus and the highest of your ally's Intelligence, Wisdom, or Charisma modifiers.</p>\n<hr />\n<p><strong>Success</strong> For the rest of the ally's turn, they can spend actions to Cast the Spell.</p>\n<p><strong>Failure</strong> The ally misremembers your instructions and can't use the scroll this turn.</p>\n<p><strong>Critical Failure</strong> The ally misunderstood your instructions and can't use the scroll.</p>"
        },
        "featType": {
            "value": "archetype"
        },
        "level": {
            "value": "8"
        },
        "prerequisites": {
            "value": [
                "Scrollmaster Dedication"
            ]
        },
        "rarity": {
            "value": "common"
        },
        "rules": [],
        "source": {
            "value": ""
        },
        "traits": {
            "custom": "",
            "rarity": {
                "value": "common"
            },
            "value": [
                "archetype"
            ]
        }
    },
    "effects": [],
    "flags": {
        "core": {
            "sourceId": "Item.aY8WjNf4lNW8IJpt"
        }
    },
    "img": "systems/pf2e/icons/features/feats/feats.jpg",
    "name": "Foolproof Instructions",
    "permission": {
        "default": 0
    },
    "type": "feat"
}
