{
    "_id": "2rSyTfPgAmNAo01r",
    "data": {
        "actionCategory": {
            "value": ""
        },
        "actionType": {
            "label": "Action Type",
            "type": "String",
            "value": "passive"
        },
        "actions": {
            "label": "Number of Actions",
            "type": "String",
            "value": ""
        },
        "description": {
            "chat": "",
            "label": "Description",
            "type": "String",
            "unidentified": "",
            "value": "<p>You Recognize Spells swiftly. Once per round, you can Recognize a Spell using a skill in which you're a master as a free action.</p>"
        },
        "featType": {
            "label": "Feat Type",
            "type": "String",
            "value": "skill"
        },
        "level": {
            "label": "Feat Level",
            "type": "String",
            "value": "7"
        },
        "prerequisites": {
            "label": "Prerequisites",
            "type": "String",
            "value": [
                "master in Arcana, Nature, Occultism, or Religion",
                "Recognize Spell"
            ]
        },
        "rarity": {
            "value": "common"
        },
        "rules": [],
        "source": {
            "label": "Source",
            "type": "String",
            "value": ""
        },
        "traits": {
            "custom": "",
            "label": "Traits",
            "rarity": {
                "value": "common"
            },
            "type": "String",
            "value": [
                "general",
                "skill"
            ]
        }
    },
    "flags": {},
    "img": "systems/pf2e/icons/features/feats/feats.jpg",
    "name": "Quick Recognition",
    "permission": {
        "default": 0
    },
    "type": "feat"
}
