{
    "_id": "YdGHQjhUrNvP18AA",
    "data": {
        "actionCategory": {
            "value": ""
        },
        "actionType": {
            "value": "passive"
        },
        "actions": {
            "value": null
        },
        "description": {
            "chat": "",
            "unidentified": "",
            "value": "<p>You can create a number of powerful shielding runes that bolster your defenses against damaging spells by absorbing the worst of the energy to keep you safe. You gain the @Compendium[pf2e.spells-srd.Spellmaster's Ward]{Spellmaster's Ward} focus spell. Increase the number of Focus Points in your focus pool by 1.</p>"
        },
        "featType": {
            "value": "archetype"
        },
        "level": {
            "value": "10"
        },
        "prerequisites": {
            "value": [
                "Spellmaster Dedication"
            ]
        },
        "rarity": {
            "value": "common"
        },
        "rules": [],
        "source": {
            "value": ""
        },
        "traits": {
            "custom": "",
            "rarity": {
                "value": "common"
            },
            "value": [
                "archetype"
            ]
        }
    },
    "effects": [],
    "flags": {
        "core": {
            "sourceId": "Item.fpeGuse3XwwSNZpE"
        }
    },
    "img": "systems/pf2e/icons/features/feats/feats.jpg",
    "name": "Spellmaster's Ward",
    "permission": {
        "default": 0
    },
    "type": "feat"
}
