{
    "_id": "9QQnv7nFpsNCGE89",
    "data": {
        "actionCategory": {
            "value": ""
        },
        "actionType": {
            "value": "passive"
        },
        "actions": {
            "value": ""
        },
        "description": {
            "chat": "",
            "unidentified": "",
            "value": "<p>You take your time searching to ensure you find everything. When @Compendium[pf2e.actionspf2e.Search]{Searching}, you can take twice as long to search. Normally this means you Search at up to one quarter of your Speed, to a maximum of 150 feet per minute to check everything, or 75 feet per minute to check everything before you walk into it. If you do, you gain a +2 circumstance bonus to your Perception checks to @Compendium[pf2e.actionspf2e.Seek]{Seek}.</p>"
        },
        "featType": {
            "value": "general"
        },
        "level": {
            "value": "3"
        },
        "prerequisites": {
            "value": [
                "expert in Perception"
            ]
        },
        "rarity": {
            "value": "common"
        },
        "rules": [],
        "source": {
            "value": ""
        },
        "traits": {
            "rarity": {
                "value": "common"
            },
            "value": [
                "general"
            ]
        }
    },
    "flags": {},
    "img": "systems/pf2e/icons/features/feats/feats.jpg",
    "name": "Thorough Search",
    "permission": {
        "default": 0
    },
    "type": "feat"
}
