{
    "_id": "NeAA1BHGGkRAmBDe",
    "data": {
        "actionCategory": {
            "value": ""
        },
        "actionType": {
            "value": "passive"
        },
        "actions": {
            "value": ""
        },
        "containerId": {
            "value": ""
        },
        "description": {
            "chat": "",
            "unidentified": "",
            "value": "<p><strong>Minor Curse</strong>: Any time you steal, illegally harm or kill another creature, or undermine a law-abiding officer or court, a symbol or word describing your crime appears on a visible spot on your skin. This symbol cannot be removed or hidden with makeup (though it can be covered with clothing) and it doesn't vanish until you make legal restitution for the crime, such as by serving your sentence.</p>"
        },
        "featType": {
            "value": "curse"
        },
        "level": {
            "value": "0"
        },
        "prerequisites": {
            "value": ""
        },
        "rarity": {
            "value": "common"
        },
        "source": {
            "value": ""
        },
        "traits": {
            "custom": "",
            "rarity": {
                "value": "common"
            },
            "selected": {},
            "value": []
        }
    },
    "flags": {},
    "img": "systems/pf2e/icons/deity/Abadar.png",
    "name": "Abadar - Minor Curse",
    "permission": {
        "default": 0
    },
    "type": "feat"
}
