{
    "_id": "wIjqVRP0Hm2bIfyc",
    "data": {
        "actionCategory": {
            "value": ""
        },
        "actionType": {
            "value": "passive"
        },
        "actions": {
            "value": ""
        },
        "containerId": {
            "value": ""
        },
        "description": {
            "chat": "",
            "unidentified": "",
            "value": "<p><strong>Minor Curse</strong>: Whenever a new person desires vengeance against you, you suffer a painful sting and are afflicted with @Compendium[pf2e.pathfinder-bestiary.Giant Wasp]{Giant Wasp} venom at stage 1.</p>"
        },
        "featType": {
            "value": "curse"
        },
        "level": {
            "value": "0"
        },
        "prerequisites": {
            "value": ""
        },
        "rarity": {
            "value": "common"
        },
        "source": {
            "value": ""
        },
        "traits": {
            "custom": "",
            "rarity": {
                "value": "common"
            },
            "selected": {},
            "value": []
        }
    },
    "flags": {},
    "img": "systems/pf2e/icons/deity/Calistria.png",
    "name": "Calistra - Minor Curse",
    "permission": {
        "default": 0
    },
    "type": "feat"
}
