{
    "_id": "wREsKC8CTifEyj6v",
    "data": {
        "actionCategory": {
            "value": ""
        },
        "actionType": {
            "value": "passive"
        },
        "actions": {
            "value": ""
        },
        "containerId": {
            "value": ""
        },
        "description": {
            "chat": "",
            "unidentified": "",
            "value": "<p><strong>Major Curse (Daily)</strong>: Norgorber steals away your memories.</p>\n<p>Once each day when you awake from rest, roll 1d4.</p>\n<p>On a 1, you forget the events of the previous day forever.</p>\n<p>On a 2, you temporarily experience complete retrograde amnesia for that day, unable to recall information from the past, including who you are.</p>\n<p>On a 3, you temporarily forget a single important subject for that day (Norgorber tends to intentionally chooses a memory to cause distress, such as making you forget your spouse on your anniversary).</p>\n<p>On a 4, you temporarily remember false memories on a single important subject for that day, blended seamlessly into your true memories.</p>"
        },
        "featType": {
            "value": "curse"
        },
        "level": {
            "value": "0"
        },
        "prerequisites": {
            "value": ""
        },
        "rarity": {
            "value": "common"
        },
        "source": {
            "value": ""
        },
        "traits": {
            "custom": "",
            "rarity": {
                "value": "common"
            },
            "selected": {},
            "value": []
        }
    },
    "flags": {},
    "img": "systems/pf2e/icons/deity/Norgorber.png",
    "name": "Norgorber - Major Curse",
    "permission": {
        "default": 0
    },
    "type": "feat"
}
