{
    "_id": "SaiJX9KBN3lC0RUy",
    "data": {
        "actionCategory": {
            "value": ""
        },
        "actionType": {
            "value": "passive"
        },
        "actions": {
            "value": ""
        },
        "containerId": {
            "value": ""
        },
        "description": {
            "chat": "",
            "unidentified": "",
            "value": "<p><strong>Major Curse</strong>: Zon-Kuthon steals away your joy, leaving you with only pain.</p>\n<p>You lose that which you cherish the most forever, and lose the ability to feel joy. You can't gain benefits from emotion effects based on positive emotions.</p>\n<p>If Zon-Kuthon feels you are ready to renounce, destroy, mutilate, or torture that which you once cherished most, he might return it to you to allow you to do so.</p>"
        },
        "featType": {
            "value": "curse"
        },
        "level": {
            "value": "0"
        },
        "prerequisites": {
            "value": ""
        },
        "rarity": {
            "value": "common"
        },
        "source": {
            "value": ""
        },
        "traits": {
            "custom": "",
            "rarity": {
                "value": "common"
            },
            "selected": {},
            "value": []
        }
    },
    "flags": {},
    "img": "systems/pf2e/icons/deity/Zon-Kuthon.png",
    "name": "Zon-Kuthon - Major Curse",
    "permission": {
        "default": 0
    },
    "type": "feat"
}
