{
    "_id": "W3xQBLj5hLOtb6Tj",
    "data": {
        "description": {
            "chat": "",
            "unidentified": "",
            "value": "<p>Granted by @Compendium[pf2e.equipment-srd.Potion of Swimming (Moderate)]{Potion of Swimming (Moderate)}</p>\n<p>Automatically applied effects:</p>\n<ul>\n<li>gain a swim Speed equal to your land Speed</li>\n</ul>\n<p>&nbsp;</p>"
        },
        "duration": {
            "expiry": "turn-start",
            "sustained": false,
            "unit": "minutes",
            "value": 10
        },
        "level": {
            "value": 6
        },
        "rarity": {
            "value": "common"
        },
        "rules": [
            {
                "key": "PF2E.RuleElement.BaseSpeed",
                "selector": "swim",
                "value": "@attributes.speed.value"
            },
            {
                "key": "PF2E.RuleElement.TokenEffectIcon"
            }
        ],
        "source": {
            "value": ""
        },
        "start": {
            "initiative": null,
            "value": 0
        },
        "traits": {
            "value": []
        }
    },
    "effects": [],
    "flags": {
        "core": {
            "sourceId": "Item.h3u0HMgX0cI98WwK"
        }
    },
    "img": "systems/pf2e/icons/equipment/consumables/potions/potion-of-swimming.jpg",
    "name": "Effect: Potion of Swimming (Moderate)",
    "permission": {
        "default": 0
    },
    "type": "effect"
}
