{
    "_id": "F5AhrHtGf1mociZ0",
    "data": {
        "actionCategory": {
            "value": ""
        },
        "actionType": {
            "value": "passive"
        },
        "actions": {
            "value": ""
        },
        "description": {
            "chat": "",
            "unidentified": "",
            "value": "<p>Your unbelievable training grants you mental resiliency. Your proficiency rank for Will saves increases to legendary. When you roll a success on a Will save, you get a critical success. When you roll a critical failure on a Will save, you get a failure instead. When you fail a Will save against a damaging effect, you take half damage.</p>"
        },
        "featType": {
            "value": "classfeature"
        },
        "level": {
            "value": 17
        },
        "prerequisites": {
            "value": ""
        },
        "rarity": {
            "value": "common"
        },
        "rules": [
            {
                "key": "PF2E.RuleElement.Note",
                "selector": "will",
                "text": "<p class='compact-text'><strong>{item|name}</strong> When you roll a critical failure on a Will save, you get a failure instead. When you fail a Will save against a damaging effect, you take half damage.</p>"
            }
        ],
        "source": {
            "value": ""
        },
        "traits": {
            "custom": "",
            "rarity": {
                "value": "common"
            },
            "value": [
                "investigator"
            ]
        }
    },
    "effects": [],
    "flags": {},
    "img": "systems/pf2e/icons/features/classes/greater-resolve.jpg",
    "name": "Greater Resolve (Investigator)",
    "permission": {
        "default": 0
    },
    "type": "feat"
}
