{
    "_id": "q00P563wwFZVYhyo",
    "data": {
        "actionCategory": {
            "value": ""
        },
        "actionType": {
            "value": "passive"
        },
        "actions": {
            "value": ""
        },
        "description": {
            "chat": "",
            "unidentified": "",
            "value": "<p>Your reflexes are lightning fast. Your proficiency rank for Reflex saves increases to expert.</p>"
        },
        "featType": {
            "value": "classfeature"
        },
        "level": {
            "value": "3"
        },
        "prerequisites": {
            "value": ""
        },
        "rarity": {
            "value": "common"
        },
        "source": {
            "value": ""
        },
        "traits": {
            "custom": "",
            "value": [
                "bard"
            ]
        }
    },
    "flags": {},
    "img": "systems/pf2e/icons/features/classes/lightning-reflexes.jpg",
    "name": "Lightning Reflexes (Bard)",
    "permission": {
        "default": 0
    },
    "type": "feat"
}
