{
    "_id": "Gmzby7whs5O0wuYC",
    "data": {
        "actionCategory": {
            "value": ""
        },
        "actionType": {
            "value": "passive"
        },
        "actions": {
            "value": ""
        },
        "containerId": {
            "value": ""
        },
        "description": {
            "chat": "",
            "unidentified": "",
            "value": "<p><strong>[Service]</strong></p>\n<p><strong>Prerequisites:</strong> Tier 3 with any faction</p>\n<p><strong>Cost</strong>: 4 Fame</p>\n<p><strong>Effect</strong>: When you purchase this boon, you remove one point of Infamy that you have accrued.</p>\n<p><strong>Normal</strong>: Removing Infamy typically costs 12 Fame per point.</p>\n<p><strong>Special</strong>: You can purchase this boon only once, even if you qualify for it from multiple factions.</p>"
        },
        "featType": {
            "value": "pfsboon"
        },
        "level": {
            "value": "0"
        },
        "prerequisites": {
            "value": ""
        },
        "rarity": {
            "value": "common"
        },
        "source": {
            "value": ""
        },
        "traits": {
            "custom": "",
            "rarity": {
                "value": "common"
            },
            "selected": {},
            "value": []
        }
    },
    "flags": {},
    "img": "systems/pf2e/icons/default-icons/mystery-man.png",
    "name": "Untarnished Reputation",
    "permission": {
        "default": 0
    },
    "type": "feat"
}
